Explore Wikidata Through Tidy Data Frames • tidywikidatar
…
purrr::map_chr(
  .x = tw_get_property(id = "Q2391857", p = "P39") %>% dplyr::pull(value),
  .f = tw_get_label
)
#> [1] "President of the European Parliament"
#> [2] "member of the European Parliament"   
#> [3] "member of the European Parliament"   
#> [4] "member of the European Parliament"

He has been more than once “member of the European Parliament”, and once “President of the European Parliament”. But this is not all that Wikidata knows about it: each of these properties comes with qualifiers.

qualifiers_df <- tw_get_qualifiers(id = "Q2391857", p = "P39")
qualifiers_df
#> # A tibble: 26 × 8
#>    id    property qualifier_id qualifier_prope… qualifier_value qualifier_value…
#>    <chr> <chr>    <chr>        <chr>            <chr>           <chr>           
#>  1 Q239… P39      Q740126      P580             +2019-07-03T00… time            
#>  2 Q239… P39      Q740126      P1365            Q440710         wikibase-entity…
#>  3 Q239… P39      Q740126      P582             +2022-01-11T00… time            
#>  4 Q239… P39      Q740126      P1534            Q5247364        wikibase-entity…
#>  5 Q239… P39      Q740126      P1366            Q7351526        wikibase-entity…
#>  6 Q239… P39      Q27169       P580             +2019-07-02T00… time            
#>  7 Q239… P39      Q27169       P582             +2022-01-11T00… time            
#>  8 Q239… P39      Q27169       P1534            Q5247364        wikibase-entity…
#>  9 Q239… P39      Q27169       P2937            Q64038205       wikibase-entity…
#> 10 Q239… P39      Q27169       P4100            Q507343         wikibase-entity…
#> # … with 16 more rows, and 2 more variables: rank <chr>, set <dbl>
…
You can then pass it to tw_query(), and get a nicely formatted dataframe with all women who are resistance fighters on Wikidata.

tw_query(query = query_df)
#> Rows: 793 Columns: 3
#> ── Column specification ────────────────────────────────────────────────────────
#> Delimiter: ","
#> chr (3): item, itemLabel, itemDescription
#> 
#> ℹ Use `spec()` to retrieve the full column specification for this data.
#> ℹ Specify the column types or set `show_col_types = FALSE` to quiet this message.
#> # A tibble: 793 × 3
#>    id       label                        description                            
#>    <chr>    <chr>                        <chr>                                  
#>  1 Q2619347 Dinie Aikema                 <NA>                                   
#>  2 Q2635392 Anda Kerkhoven               Dutch resistance fighter               
#>  3 Q2639558 Jet Berdenis van Berlekom    <NA>                                   
#>  4 Q2646969 Alice Wosikowski             German politician                      
#>  5 Q2660374 Nina Baumgarten              <NA>                                   
#>  6 Q2696526 Ada van Rossem               Dutch resistance fighter (1915-2000)   
#>  7 Q2696536 Yolande Beekman              French SOE agent                       
#>  8 Q2706683 Gerritdina Benders-Letteboer <NA>                                   
#>  9 Q2719616 Tosia Altman                 Member of the Polish resistance in Wor…
#> 10 Q2784601 Mathilde Verspyck            <NA>                                   
#> # … with 783 more rows
…
tibble::tribble(
  ~p, ~q,
  "P106", "Q1397808", # Occupation: resistance fighter
  "P21", "Q6581072", # Sex or gender: female
  "P27", "Q142"
) %>% # Country of citizenship: France
  tw_query(language = c("it", "fr"))
#> Rows: 131 Columns: 3
#> ── Column specification ────────────────────────────────────────────────────────
#> Delimiter: ","
#> chr (3): item, itemLabel, itemDescription
#> 
#> ℹ Use `spec()` to retrieve the full column specification for this data.
#> ℹ Specify the column types or set `show_col_types = FALSE` to quiet this message.
#> # A tibble: 131 × 3
#>    id        label                           description                        
#>    <chr>     <chr>                           <chr>                              
#>  1 Q270319   Christiane Desroches Noblecourt egittologa e archeologa francese   
#>  2 Q2696536  Yolande Beekman                 espionne et agente secret des Spec…
#>  3 Q78072194 Aimée Stitelmann                passeuse franco-suisse durant la s…
#>  4 Q79800420 Gabrielle Martinez-Picabia      résistante française               
#>  5 Q83832570 Alice Gillig                    résistante française               
#>  6 Q84080188 Lucienne Welschinger            résistante alsacienne              
#>  7 Q84184167 Marcelle Bidault                résistante française               
#>  8 Q84608915 Q84608915                       <NA>                               
#>  9 Q85621169 Marie-Antoinette Pappé          bibliothécaire française           
#> 10 Q88766484 Paulette Fink                   résistante et activiste juive      
#> # … with 121 more rows
…
Depending on the workflow, it is also possible to get the full link to the Wikipedia page starting from a given Wikidata identifier.

tw_get_wikipedia(id = "Q180099")
#> [1] "https://en.wikipedia.org/wiki/Margaret Mead"

Who and what is mentioned in Margaret Mead’s Wikipedia page? As it turns out, hundreds of pages, including a variety of people, places, concepts, etc.

wikipedia_df <- tw_get_wikipedia(id = "Q180099") %>% 
  tw_get_wikipedia_page_links()

wikipedia_df
#> # A tibble: 892 × 8
#>    source_title_url source_wikipedia_ti… source_qid wikipedia_title wikipedia_id
#>    <chr>            <chr>                <chr>      <chr>                  <int>
#>  1 Margaret Mead    Margaret Mead        Q180099    Alex Barker               NA
#>  2 Margaret Mead    Margaret Mead        Q180099    Alfred S. Hayes           NA
#>  3 Margaret Mead    Margaret Mead        Q180099    Blackberry Win…           NA
#>  4 Margaret Mead    Margaret Mead        Q180099    Continuities i…           NA
#>  5 Margaret Mead    Margaret Mead        Q180099    Culture and Co…           NA
#>  6 Margaret Mead    Margaret Mead        Q180099    John P. Gillin            NA
#>  7 Margaret Mead    Margaret Mead        Q180099    A Darwinian Le…      3890352
#>  8 Margaret Mead    Margaret Mead        Q180099    A Rap on Race       14527943
#>  9 Margaret Mead    Margaret Mead        Q180099    Abby Kelley          4056835
#> 10 Margaret Mead    Margaret Mead        Q180099    Abigail Adams         102745
#> # … with 882 more rows, and 3 more variables: qid <chr>, description <chr>,
#> #   language <chr>
…
