…
query_df
#> # A tibble: 2 x 2
#>   p     q       
#>   <chr> <chr>   
#> 1 P106  Q1397808
#> 2 P21   Q6581072
```

You can then pass it to `tw_query()`, and get a nicely formatted
dataframe with all female resistance fighters on Wikidata.

``` r
tw_query(query = query_df)
#> # A tibble: 639 x 3
#>    id     label                 description                                     
#>    <chr>  <chr>                 <chr>                                           
#>  1 Q66335 Traute Lafrenz        active within the White Rose non-violent resist…
#>  2 Q69042 Libertas Schulze-Boy… German opponent of the Nazis who belonged to th…
#>  3 Q69720 Tatiana von Metterni… German patron of the arts of Russian birth      
#>  4 Q70593 Cato Bontjes van Beek member of the German resistance to Nazism       
#>  5 Q70670 Elisabeth von Thadden German resistance member (1890-1944)            
#>  6 Q70772 Hilde Coppi           Antifascist member of resistance                
#>  7 Q70873 Inge Scholl           German activist                                 
#>  8 Q71688 Marie-Luise Jahn      German resistance fighter; active within the Wh…
#>  9 Q72908 Mildred Harnack       American-German literary historian, professor, …
#> 10 Q74405 Elisabeth Schumacher  German resistance member                        
#> # … with 629 more rows
```
…
