…
## using `tw_test_items` in examples in order to show output without calling
## on Wikidata servers

tidywikidatar:::tw_get_single(
  id = "Q180099",
  language = "en",
  id_l = tw_test_items
)
#> # A tibble: 188 × 4
#>    id      property value         rank  
#>    <chr>   <chr>    <chr>         <chr> 
#>  1 Q180099 label_en Margaret Mead NA    
#>  2 Q180099 P21      Q6581072      normal
#>  3 Q180099 P214     44302511      normal
#>  4 Q180099 P106     Q674426       normal
#>  5 Q180099 P106     Q4773904      normal
#>  6 Q180099 P106     Q36180        normal
#>  7 Q180099 P106     Q2526255      normal
#>  8 Q180099 P373     Margaret Mead normal
#>  9 Q180099 P244     n78093416     normal
#> 10 Q180099 P227     118579789     normal
#> # ℹ 178 more rows
```
