…
## using `tw_test_items` in examples in order to show output without calling
## on Wikidata servers

tw_get(
  id = c("Q180099", "Q228822"),
  language = "en",
  id_l = tw_test_items
)
#> # A tibble: 373 × 4
#>    id      property value                         rank  
#>    <chr>   <chr>    <chr>                         <chr> 
#>  1 Q180099 label_en Margaret Mead                 NA    
#>  2 Q180099 P21      Q6581072                      normal
#>  3 Q180099 P214     44302511                      normal
#>  4 Q180099 P106     Q4773904                      normal
#>  5 Q180099 P373     Margaret Mead                 normal
#>  6 Q180099 P244     n78093416                     normal
#>  7 Q180099 P227     118579789                     normal
#>  8 Q180099 P18      Margaret Mead (1901-1978).jpg normal
#>  9 Q180099 P509     Q212961                       normal
#> 10 Q180099 P19      Q1345                         normal
#> # ℹ 363 more rows
```
