Using Wikipedia as a starting point • tidywikidatar
…
What kind of things are mentioned in this page?

mep_wiki_df %>%
  pull(qid) %>%
  tw_get_property(p = "P31") %>%
  group_by(value) %>%
  tally(sort = TRUE) %>%
  transmute(instance_of = tw_get_label(value),
            n)
#> # A tibble: 67 × 2
#>    instance_of                                    n
#>    <chr>                                      <int>
#>  1 human                                        819
#>  2 Wikimedia list article                       227
#>  3 political party                              161
#>  4 <NA>                                          62
#>  5 election to the European Parliament           35
#>  6 political party in Germany                    13
#>  7 Green party                                   13
#>  8 political group of the European Parliament     8
#>  9 Wikimedia project page                         6
#> 10 electoral alliance                             6
#> # … with 57 more rows
…
#> [=======================================================================>----------------------] 76%
#> [========================================================================>---------------------] 78%
#> [==========================================================================>-------------------] 80%
#> [============================================================================>-----------------] 82%
#> [==============================================================================>---------------] 84%
#> [===============================================================================>--------------] 85%
#> [=================================================================================>------------] 87%
#> [===================================================================================>----------] 89%
#> [====================================================================================>---------] 91%
#> [======================================================================================>-------] 93%
#> [========================================================================================>-----] 95%
#> [==========================================================================================>---] 96%
#> [===========================================================================================>--] 98%
#> [==============================================================================================] 100%
#> # A tibble: 58 × 3
#>    pob_country_id     n pob_country   
#>    <chr>          <int> <chr>         
#>  1 Q183              95 Germany       
#>  2 Q142              77 France        
#>  3 Q38               77 Italy         
#>  4 Q145              60 United Kingdom
#>  5 Q29               56 Spain         
#>  6 Q36               50 Poland        
#>  7 Q218              34 Romania       
#>  8 Q55               30 Netherlands   
#>  9 Q31               23 Belgium       
#> 10 Q213              22 Czech Republic
#> # … with 48 more rows
…
